<?xml version="1.0" encoding="UTF-8" standalone="no"?>
<svg
   viewBox="0 0 24 24"
   width="36"
   height="36"
   version="1.1"
   id="svg55"
   sodipodi:docname="mouse-rhand-bg.svg"
   inkscape:version="1.1.1 (3bf5ae0d25, 2021-09-20)"
   xmlns:inkscape="http://www.inkscape.org/namespaces/inkscape"
   xmlns:sodipodi="http://sodipodi.sourceforge.net/DTD/sodipodi-0.dtd"
   xmlns="http://www.w3.org/2000/svg"
   xmlns:svg="http://www.w3.org/2000/svg">
  <defs
     id="defs59" />
  <sodipodi:namedview
     id="namedview57"
     pagecolor="#ffffff"
     bordercolor="#666666"
     borderopacity="1.0"
     inkscape:pageshadow="2"
     inkscape:pageopacity="0.0"
     inkscape:pagecheckerboard="0"
     showgrid="false"
     inkscape:zoom="22.111111"
     inkscape:cx="9.0678392"
     inkscape:cy="20.329146"
     inkscape:window-width="2560"
     inkscape:window-height="1048"
     inkscape:window-x="0"
     inkscape:window-y="-5"
     inkscape:window-maximized="1"
     inkscape:current-layer="layer1" />
  <g
     inkscape:groupmode="layer"
     id="layer1"
     inkscape:label="Layer 1">
    <ellipse
       style="fill:#ffffff;fill-opacity:1;stroke-width:0.722861"
       id="path31"
       cx="11.972388"
       cy="11.976545"
       rx="11.96514"
       ry="11.941466" />
  </g>
  <path
     fill="none"
     d="M0 0h24v24H0z"
     id="path51" />
  <path
     d="M11.141 4c-1.582 0-2.387.169-3.128.565a3.453 3.453 0 0 0-1.448 1.448C6.169 6.753 6 7.559 6 9.14v5.718c0 1.582.169 2.387.565 3.128.337.63.818 1.111 1.448 1.448.74.396 1.546.565 3.128.565h1.718c1.582 0 2.387-.169 3.128-.565a3.453 3.453 0 0 0 1.448-1.448c.396-.74.565-1.546.565-3.128V9.14c0-1.582-.169-2.387-.565-3.128a3.453 3.453 0 0 0-1.448-1.448C15.247 4.169 14.441 4 12.86 4H11.14zm0-2h1.718c2.014 0 3.094.278 4.072.801a5.452 5.452 0 0 1 2.268 2.268c.523.978.801 2.058.801 4.072v5.718c0 2.014-.278 3.094-.801 4.072a5.452 5.452 0 0 1-2.268 2.268c-.978.523-2.058.801-4.072.801H11.14c-2.014 0-3.094-.278-4.072-.801a5.452 5.452 0 0 1-2.268-2.268C4.278 17.953 4 16.873 4 14.859V9.14c0-2.014.278-3.094.801-4.072A5.452 5.452 0 0 1 7.07 2.801C8.047 2.278 9.127 2 11.141 2zM11 6h2v5h-2V6z"
     id="path53" />
  <text
     xml:space="preserve"
     style="font-style:normal;font-weight:normal;font-size:8.88889px;line-height:1.25;font-family:sans-serif;fill:#000000;fill-opacity:1;stroke:none;stroke-width:0.666667"
     x="9.5302286"
     y="17.809084"
     id="text3918"><tspan
       sodipodi:role="line"
       id="tspan3916"
       style="font-style:normal;font-variant:normal;font-weight:bold;font-stretch:normal;font-size:8.88889px;font-family:'Nimbus Mono PS';-inkscape-font-specification:'Nimbus Mono PS Bold';fill:#ff7f2a;stroke-width:0.666667"
       x="9.5302286"
       y="17.809084">R</tspan></text>
  <g
     inkscape:groupmode="layer"
     id="layer2"
     inkscape:label="Layer 2" />
</svg>
